2020-5-21, 15:45:31.910 UTC
[15:45:38.017 UTC] Verbose logs are written to:
[15:45:38.017 UTC] /Users/roblou/code/vscode-chrome-debug/logs/darwin-BreakOnLoad Regex Common Tests Simple JavaScript Project Hits multiple breakpoints in a file on load-TEST.log
