2020-5-21, 15:46:32.580 UTC
[15:46:38.565 UTC] Verbose logs are written to:
[15:46:38.565 UTC] /Users/roblou/code/vscode-chrome-debug/logs/darwin-BreakOnLoad Instrument Common Tests Simple JavaScript Project Hits a breakpoint at (1,1) in a file on load-TEST.log
